[
  {
    "TypeName": "MechanicalSlime",
    "Namespace": "AFKPETS.NPCs.SlimesLastHope",
    "Name": "机械史莱姆",
    "ShopButton1": "",
    "ShopButton2": "",
    "ChatTexts": [],
    "TownNpcNames": []
  },
  {
    "TypeName": "ShinobiSlime",
    "Namespace": "AFKPETS.NPCs.SlimesLastHope",
    "Name": "忍者史莱姆",
    "ShopButton1": "",
    "ShopButton2": "",
    "ChatTexts": [],
    "TownNpcNames": []
  },
  {
    "TypeName": "ShinobiSlimeDasher",
    "Namespace": "AFKPETS.NPCs.SlimesLastHope",
    "Name": "忍者史莱姆",
    "ShopButton1": "",
    "ShopButton2": "",
    "ChatTexts": [],
    "TownNpcNames": []
  },
  {
    "TypeName": "ShinobiSlimeShuriken",
    "Namespace": "AFKPETS.NPCs.SlimesLastHope",
    "Name": "忍者史莱姆",
    "ShopButton1": "",
    "ShopButton2": "",
    "ChatTexts": [],
    "TownNpcNames": []
  },
  {
    "TypeName": "SlimeWatcher",
    "Namespace": "AFKPETS.NPCs.SlimesLastHope",
    "Name": "史莱姆观察者",
    "ShopButton1": "",
    "ShopButton2": "",
    "ChatTexts": [],
    "TownNpcNames": []
  },
  {
    "TypeName": "UWUSlime",
    "Namespace": "AFKPETS.NPCs.SlimesLastHope",
    "Name": "UwU史莱姆",
    "ShopButton1": "",
    "ShopButton2": "",
    "ChatTexts": [],
    "TownNpcNames": []
  }
]