[
  {
    "TypeName": "DiseasterBunny",
    "Namespace": "AFKPETS.NPCs.AncientTrio",
    "Name": "灾害兔兔",
    "ShopButton1": "",
    "ShopButton2": "",
    "ChatTexts": [],
    "TownNpcNames": []
  },
  {
    "TypeName": "Lepus",
    "Namespace": "AFKPETS.NPCs.AncientTrio",
    "Name": "Ancient Shard",
    "ShopButton1": "",
    "ShopButton2": "",
    "ChatTexts": [],
    "TownNpcNames": []
  },
  {
    "TypeName": "LepusEgg",
    "Namespace": "AFKPETS.NPCs.AncientTrio",
    "Name": "天兔蛋",
    "ShopButton1": "",
    "ShopButton2": "",
    "ChatTexts": [],
    "TownNpcNames": []
  },
  {
    "TypeName": "LepusEgg2",
    "Namespace": "AFKPETS.NPCs.AncientTrio",
    "Name": "天兔蛋",
    "ShopButton1": "",
    "ShopButton2": "",
    "ChatTexts": [],
    "TownNpcNames": []
  },
  {
    "TypeName": "MobileTerrariaPlayer",
    "Namespace": "AFKPETS.NPCs.AncientTrio",
    "Name": "泰拉瑞亚人",
    "ShopButton1": "",
    "ShopButton2": "",
    "ChatTexts": [],
    "TownNpcNames": []
  },
  {
    "TypeName": "Ocram",
    "Namespace": "AFKPETS.NPCs.AncientTrio",
    "Name": "奥库瑞姆",
    "ShopButton1": "",
    "ShopButton2": "",
    "ChatTexts": [],
    "TownNpcNames": []
  },
  {
    "TypeName": "ServantofOcram",
    "Namespace": "AFKPETS.NPCs.AncientTrio",
    "Name": "奥库瑞姆的仆从",
    "ShopButton1": "",
    "ShopButton2": "",
    "ChatTexts": [],
    "TownNpcNames": []
  },
  {
    "TypeName": "TurkorBody",
    "Namespace": "AFKPETS.NPCs.AncientTrio",
    "Name": "火鸡之躯",
    "ShopButton1": "",
    "ShopButton2": "",
    "ChatTexts": [],
    "TownNpcNames": []
  },
  {
    "TypeName": "TurkorHead",
    "Namespace": "AFKPETS.NPCs.AncientTrio",
    "Name": "火鸡之首",
    "ShopButton1": "",
    "ShopButton2": "",
    "ChatTexts": [],
    "TownNpcNames": []
  }
]