[
  {
    "TypeName": "AdmiralSword",
    "Namespace": "AFKPETS.Items.Weapons",
    "Name": "海军上将的武士刀",
    "ToolTip": "'它曾被海军上将李舜臣在临津战争中用以保家卫国.'\n'朝鲜王朝的荣誉将会照耀着持剑者'\n'击中敌人后有几率触发龟船的支援炮击。'",
    "SetBonus": "",
    "ModifyTooltips": []
  },
  {
    "TypeName": "AirHorn",
    "Namespace": "AFKPETS.Items.Weapons",
    "Name": "空气喇叭",
    "Tooltip": "“有几率产生气压爆炸”",
    "SetBonus": "",
    "ModifyTooltips": []
  },
  {
    "TypeName": "AK",
    "Namespace": "AFKPETS.Items.Weapons",
    "Name": "AK-47",
    "Tooltip": "不接受替代品。",
    "SetBonus": "",
    "ModifyTooltips": []
  },
  {
    "TypeName": "AlchemistSickle",
    "Namespace": "AFKPETS.Items.Weapons",
    "Name": "死神炼金镰",
    "Tooltip": "'格雷格批准'",
    "SetBonus": "",
    "ModifyTooltips": []
  },
  {
    "TypeName": "AncientBow",
    "Namespace": "AFKPETS.Items.Weapons",
    "Name": "古老的弓",
    "Tooltip": "曾经属于大弓箭手。\n右键释放特殊攻击。",
    "SetBonus": "",
    "ModifyTooltips": []
  },
  {
    "TypeName": "AncientRoot",
    "Namespace": "AFKPETS.Items.Weapons",
    "Name": "自然之根",
    "Tooltip": "'它曾经是丛林守护者的一部分'",
    "SetBonus": "",
    "ModifyTooltips": []
  },
  {
    "TypeName": "AncientScarabSword",
    "Namespace": "AFKPETS.Items.Weapons",
    "Name": "古老圣甲虫剑",
    "Tooltip": "“它是蓝色圣甲虫与智慧的结晶”",
    "SetBonus": "",
    "ModifyTooltips": []
  },
  {
    "TypeName": "AnnoyingDog",
    "Namespace": "AFKPETS.Items.Weapons",
    "Name": "神烦狗",
    "Tooltip": "汪汪",
    "SetBonus": "",
    "ModifyTooltips": []
  },
  {
    "TypeName": "BeatSabers",
    "Namespace": "AFKPETS.Items.Weapons",
    "Name": "节奏光剑",
    "ToolTip": "只是拿着它们也能使拥有微弱的节奏感\n左键使用蓝色光剑，右键使用红色光剑\n蓝色光剑会降低敌人的耐力，而红色光剑则会降低敌人的攻击力\n用同色的光剑击中同一个敌人两次可以使武器力量提升10%\n每个敌人只能同时附着一种负面光剑效果.\n",
    "SetBonus": "",
    "ModifyTooltips": []
  },
  {
    "TypeName": "BeeHive",
    "Namespace": "AFKPETS.Items.Weapons",
    "Name": "蜂巢",
    "Tooltip": "嗡——！",
    "SetBonus": "",
    "ModifyTooltips": []
  },
  {
    "TypeName": "BlessedBanana",
    "Namespace": "AFKPETS.Items.Weapons",
    "Name": "祝福香蕉",
    "ToolTip": "'它曾经是古代军阀loverofgames的善良和力量所形成的。'\n'你感到一股强大的精神力量从它身上溢出。'\n[c/ffff00:趣味模式专属]",
    "SetBonus": "",
    "ModifyTooltips": []
  },
  {
    "TypeName": "BomberSword",
    "Namespace": "AFKPETS.Items.Weapons",
    "Name": "炸弹剑",
    "ToolTip": "“小心手雷！”\n'右键以引爆所有抛出去的手雷'",
    "SetBonus": "",
    "ModifyTooltips": []
  },
  {
    "TypeName": "BoneofDryBones",
    "Namespace": "AFKPETS.Items.Weapons",
    "Name": "Bone of Dry Bones",
    "ToolTip": "It's someones favourite",
    "SetBonus": "",
    "ModifyTooltips": []
  },
  {
    "TypeName": "Book2",
    "Namespace": "AFKPETS.Items.Weapons",
    "Name": "???",
    "Tooltip": "",
    "SetBonus": "",
    "ModifyTooltips": []
  },
  {
    "TypeName": "BookofKanpekinaSugaku",
    "Namespace": "AFKPETS.Items.Weapons",
    "Name": "'完美算数教室'",
    "Tooltip": "'这上面充满了可以用奇怪腔调唱出来的数学题'\n'这本书的封面好像也被冻起来了'",
    "SetBonus": "",
    "ModifyTooltips": []
  },
  {
    "TypeName": "BookofLunarDestruction",
    "Namespace": "AFKPETS.Items.Weapons",
    "Name": "月光浴",
    "Tooltip": "“月总许可”",
    "SetBonus": "",
    "ModifyTooltips": []
  },
  {
    "TypeName": "BookofSelfDestruct",
    "Namespace": "AFKPETS.Items.Weapons",
    "Name": "自毁之书",
    "Tooltip": "“很适合用来挖矿”",
    "SetBonus": "",
    "ModifyTooltips": []
  },
  {
    "TypeName": "BoulderMagic",
    "Namespace": "AFKPETS.Items.Weapons",
    "Name": "石头法术书",
    "Tooltip": "“释放巨石状的石头”",
    "SetBonus": "",
    "ModifyTooltips": []
  },
  {
    "TypeName": "BunnyHandCannon",
    "Namespace": "AFKPETS.Items.Weapons",
    "Name": "兔兔手炮",
    "Tooltip": "将子弹变成爆炸兔兔",
    "SetBonus": "",
    "ModifyTooltips": []
  },
  {
    "TypeName": "BurstLaserII",
    "Namespace": "AFKPETS.Items.Weapons",
    "Name": "Burst Laser II",
    "ToolTip": "This trusty burst laser is the pick of Federation captains for all of their combat needs",
    "SetBonus": "",
    "ModifyTooltips": []
  },
  {
    "TypeName": "Cactus",
    "Namespace": "AFKPETS.Items.Weapons",
    "Name": "黄金桶仙人掌",
    "Tooltip": "“它会为了仙掌凯撒大帝而作战”",
    "SetBonus": "",
    "ModifyTooltips": []
  },
  {
    "TypeName": "CactusGun",
    "Namespace": "AFKPETS.Items.Weapons",
    "Name": "仙人掌",
    "Tooltip": "低伤害，高攻速。全是刺！",
    "SetBonus": "",
    "ModifyTooltips": []
  },
  {
    "TypeName": "CactusSword",
    "Namespace": "AFKPETS.Items.Weapons",
    "Name": "仙掌人守护者",
    "Tooltip": "“由古老的国王使用仙掌人之力缔造出来”",
    "SetBonus": "",
    "ModifyTooltips": []
  },
  {
    "TypeName": "CharaHeart",
    "Namespace": "AFKPETS.Items.Weapons",
    "Name": "???之心",
    "Tooltip": "当怪物们直呼其名时，曾经拥有这颗心的恶魔便会现身.\n看样子它已经充满了仇恨以及[c/FF0000:决心].",
    "SetBonus": "",
    "ModifyTooltips": []
  },
  {
    "TypeName": "Chompwithchain",
    "Namespace": "AFKPETS.Items.Weapons",
    "Name": "链球",
    "Tooltip": "“他看上去很生气”",
    "SetBonus": "",
    "ModifyTooltips": []
  },
  {
    "TypeName": "CigaretteHolder",
    "Namespace": "AFKPETS.Items.Weapons",
    "Name": "香烟滤嘴",
    "ToolTip": "可别把它丢进锯木台里了",
    "SetBonus": "",
    "ModifyTooltips": []
  },
  {
    "TypeName": "CoderHand",
    "Namespace": "AFKPETS.Items.Weapons",
    "Name": "全息手套",
    "Tooltip": "“表面盖满了代码”",
    "SetBonus": "",
    "ModifyTooltips": []
  },
  {
    "TypeName": "Conductor",
    "Namespace": "AFKPETS.Items.Weapons",
    "Name": "Conductor",
    "ToolTip": "Hitting enemies have a chance to make it conduct electricity",
    "SetBonus": "",
    "ModifyTooltips": []
  },
  {
    "TypeName": "CorrupterGun",
    "Namespace": "AFKPETS.Items.Weapons",
    "Name": "腐化者枪",
    "Tooltip": "到处都是吞噬者！",
    "SetBonus": "",
    "ModifyTooltips": []
  },
  {
    "TypeName": "CrystalGun",
    "Namespace": "AFKPETS.Items.Weapons",
    "Name": "水晶枪",
    "Tooltip": "它根本没有机械结构。那它是怎么运作的？",
    "SetBonus": "",
    "ModifyTooltips": []
  },
  {
    "TypeName": "CrystalizedBeenerade",
    "Namespace": "AFKPETS.Items.Weapons",
    "Name": "结晶蜜蜂雷",
    "Tooltip": "'爆炸将会释放出一窝结晶蜜蜂'",
    "SetBonus": "",
    "ModifyTooltips": []
  },
  {
    "TypeName": "CursedAxe",
    "Namespace": "AFKPETS.Items.Weapons",
    "Name": "诅咒吉他",
    "Tooltip": "'看来世纪之花的诅咒让它变得更强了。'",
    "SetBonus": "",
    "ModifyTooltips": []
  },
  {
    "TypeName": "CursedFlameBolt",
    "Namespace": "AFKPETS.Items.Weapons",
    "Name": "咒焰球",
    "Tooltip": "",
    "SetBonus": "",
    "ModifyTooltips": []
  },
  {
    "TypeName": "CursedShadowKnife",
    "Namespace": "AFKPETS.Items.Weapons",
    "Name": "被诅咒的飞刀",
    "Tooltip": "击中敌人附带咒焰效果",
    "SetBonus": "",
    "ModifyTooltips": []
  },
  {
    "TypeName": "DededeHammer",
    "Namespace": "AFKPETS.Items.Weapons",
    "Name": "星锤",
    "Tooltip": "“和帝帝帝大王的锤子一样好”",
    "SetBonus": "",
    "ModifyTooltips": []
  },
  {
    "TypeName": "DrFetusRocketLauncher",
    "Namespace": "AFKPETS.Items.Weapons",
    "Name": "追踪火箭发射器",
    "Tooltip": "它属于胎儿博士",
    "SetBonus": "",
    "ModifyTooltips": []
  },
  {
    "TypeName": "DroneShuriken",
    "Namespace": "AFKPETS.Items.Weapons",
    "Name": "无人机手里剑",
    "Tooltip": "“锁定目标”",
    "SetBonus": "",
    "ModifyTooltips": []
  },
  {
    "TypeName": "DryadsGift",
    "Namespace": "AFKPETS.Items.Weapons",
    "Name": "树妖的礼物",
    "ToolTip": "'如此湛蓝，如此美丽；这确实是一份来自树妖的礼物'",
    "SetBonus": "",
    "ModifyTooltips": []
  },
  {
    "TypeName": "EaterGun",
    "Namespace": "AFKPETS.Items.Weapons",
    "Name": "吞噬枪",
    "Tooltip": "发射小型灵魂吞噬者",
    "SetBonus": "",
    "ModifyTooltips": []
  },
  {
    "TypeName": "EggCannon",
    "Namespace": "AFKPETS.Items.Weapons",
    "Name": "鸡蛋加农炮",
    "ToolTip": "为了干掉一个哥布林，你不得不打破几个鸡蛋",
    "SetBonus": "",
    "ModifyTooltips": []
  },
  {
    "TypeName": "EhekaTetl",
    "Namespace": "AFKPETS.Items.Weapons",
    "Name": "Eheka Tetl",
    "ToolTip": "'It's once designed to take down the preys which do not affect from blow pipes",
    "SetBonus": "",
    "ModifyTooltips": []
  },
  {
    "TypeName": "EnergizedDynamite",
    "Namespace": "AFKPETS.Items.Weapons",
    "Name": "高爆手雷",
    "ToolTip": "'你觉得拆迁办的人肯定会很喜欢这玩意的。",
    "SetBonus": "",
    "ModifyTooltips": []
  },
  {
    "TypeName": "EvilDog",
    "Namespace": "AFKPETS.Items.Weapons",
    "Name": "血腥神烦狗",
    "Tooltip": "这就是为什么每个tale（故事）中都有Chara的存在",
    "SetBonus": "",
    "ModifyTooltips": []
  },
  {
    "TypeName": "ExplosiveBlade",
    "Namespace": "AFKPETS.Items.Weapons",
    "Name": "爆炸剑",
    "ToolTip": "'它的表面有一层化学涂层'\n'击中敌人有几率让敌人沾染上化学物质，这些化学物质会与空气发生反应并持续爆炸'",
    "SetBonus": "",
    "ModifyTooltips": []
  },
  {
    "TypeName": "ExplosiveTerraSword",
    "Namespace": "AFKPETS.Items.Weapons",
    "Name": "爆炸之母",
    "ToolTip": "它不仅表面覆盖着磷火，内部还被注满了地狱鸦的核废料",
    "SetBonus": "",
    "ModifyTooltips": []
  },
  {
    "TypeName": "Extase",
    "Namespace": "AFKPETS.Items.Weapons",
    "Name": "万物两断[销魂]",
    "Tooltip": "“这幅帝具曾经是属于希尔（斩！赤红之瞳）的”",
    "SetBonus": "",
    "ModifyTooltips": []
  },
  {
    "TypeName": "EyeSickle",
    "Namespace": "AFKPETS.Items.Weapons",
    "Name": "眼球镰刀",
    "Tooltip": "“击中敌人会削弱他们的攻击\n并召唤克苏鲁的仆从”",
    "SetBonus": "",
    "ModifyTooltips": []
  },
  {
    "TypeName": "FireKnife",
    "Namespace": "AFKPETS.Items.Weapons",
    "Name": "火焰飞刀",
    "Tooltip": "使敌人着火",
    "SetBonus": "",
    "ModifyTooltips": []
  },
  {
    "TypeName": "FireStarter",
    "Namespace": "AFKPETS.Items.Weapons",
    "Name": "纵火者",
    "ToolTip": "'注意 不要在使用它的时候引发火灾'",
    "SetBonus": "",
    "ModifyTooltips": []
  },
  {
    "TypeName": "FireworkGun1",
    "Namespace": "AFKPETS.Items.Weapons",
    "Name": "红色烟花枪",
    "Tooltip": "战斗中的庆祝",
    "SetBonus": "",
    "ModifyTooltips": []
  },
  {
    "TypeName": "FireworkGun2",
    "Namespace": "AFKPETS.Items.Weapons",
    "Name": "绿色烟花枪",
    "Tooltip": "战斗中的庆祝",
    "SetBonus": "",
    "ModifyTooltips": []
  },
  {
    "TypeName": "FireworkGun3",
    "Namespace": "AFKPETS.Items.Weapons",
    "Name": "蓝色烟花枪",
    "Tooltip": "战斗中的庆祝",
    "SetBonus": "",
    "ModifyTooltips": []
  },
  {
    "TypeName": "FireworkGun4",
    "Namespace": "AFKPETS.Items.Weapons",
    "Name": "黄色烟花枪",
    "Tooltip": "战斗中的庆祝",
    "SetBonus": "",
    "ModifyTooltips": []
  },
  {
    "TypeName": "FlareGun",
    "Namespace": "AFKPETS.Items.Weapons",
    "Name": "信号枪",
    "Tooltip": "在这里！",
    "SetBonus": "",
    "ModifyTooltips": []
  },
  {
    "TypeName": "FleshBall",
    "Namespace": "AFKPETS.Items.Weapons",
    "Name": "Flesh Ball",
    "ToolTip": "'It's once used by the spirit to feed the poor tiny hungries'\n'It's made from brains of cultist because of they are tasty and healty to hungries'",
    "SetBonus": "",
    "ModifyTooltips": []
  },
  {
    "TypeName": "ForceHand",
    "Namespace": "AFKPETS.Items.Weapons",
    "Name": "力量手套",
    "Tooltip": "“你低估了黑暗面的实力”",
    "SetBonus": "",
    "ModifyTooltips": []
  },
  {
    "TypeName": "ForceofNature",
    "Namespace": "AFKPETS.Items.Weapons",
    "Name": "Force of Nature",
    "ToolTip": "Anything this baby hits is going for a ride",
    "SetBonus": "",
    "ModifyTooltips": []
  },
  {
    "TypeName": "ForgottenGun",
    "Namespace": "AFKPETS.Items.Weapons",
    "Name": "遗忘之枪",
    "Tooltip": "它曾经被古代军阀Audrina2k伪造，用于摧毁邪恶.\n它能利用军阀的力量为自己充能",
    "SetBonus": "",
    "ModifyTooltips": []
  },
  {
    "TypeName": "ForgottenRevolver",
    "Namespace": "AFKPETS.Items.Weapons",
    "Name": "古代智慧使者",
    "ToolTip": "它曾是古代军阀Blossom以及虚空中的某物的伪造产物。\n即便如此它仍然在意那个军阀。\n它以你的生命为代价，从它全知的主那聚集出一道知识光攻击敌人\n知识之光在攻击敌人的同时会使得他们的大脑超载，丧失原本的功能\n如果敌人已有这个debuff，则知识之光不会影响到他们",
    "SetBonus": "",
    "ModifyTooltips": []
  },
  {
    "TypeName": "FrostKnife",
    "Namespace": "AFKPETS.Items.Weapons",
    "Name": "霜冻飞刀",
    "Tooltip": "击中敌人附加霜焰效果",
    "SetBonus": "",
    "ModifyTooltips": []
  },
  {
    "TypeName": "FrozenFrog",
    "Namespace": "AFKPETS.Items.Weapons",
    "Name": "冻住的青蛙",
    "Tooltip": "“我希望诹访子不会看到这个”",
    "SetBonus": "",
    "ModifyTooltips": []
  },
  {
    "TypeName": "FrozenKatana",
    "Namespace": "AFKPETS.Items.Weapons",
    "Name": "霜冻武士刀",
    "Tooltip": "与宇宙一样寒冷\n右键施放特殊攻击",
    "SetBonus": "",
    "ModifyTooltips": []
  },
  {
    "TypeName": "FusRoDah",
    "Namespace": "AFKPETS.Items.Weapons",
    "Name": "不卸之力",
    "ToolTip": "你的声音中包含着原初之力，它能推开一切东西\n- 或者任何人 - 只要他们敢挡在你前面。\n",
    "SetBonus": "",
    "ModifyTooltips": []
  },
  {
    "TypeName": "Gelifier",
    "Namespace": "AFKPETS.Items.Weapons",
    "Name": "凝胶块枪",
    "ToolTip": "甚至比沙枪更好。",
    "SetBonus": "",
    "ModifyTooltips": []
  },
  {
    "TypeName": "GoldenLightning",
    "Namespace": "AFKPETS.Items.Weapons",
    "Name": "黄金小闪电",
    "ToolTip": "'它是从魔法和浓缩闪电中被锻造出来的。'",
    "SetBonus": "",
    "ModifyTooltips": []
  },
  {
    "TypeName": "GoldenSafe",
    "Namespace": "AFKPETS.Items.Weapons",
    "Name": "黄金保险箱",
    "ToolTip": "'这里面存着史莱姆议员的午餐钱。'",
    "SetBonus": "",
    "ModifyTooltips": []
  },
  {
    "TypeName": "GoldenShuriken",
    "Namespace": "AFKPETS.Items.Weapons",
    "Name": "黄金手里剑",
    "ToolTip": "'被赋予了回旋之力的强化手里剑'\n'右键扔出旋转手里剑，对空中的敌人造成更多伤害'\n'左键扔出沉重的手里剑，对地面上的敌人造成更多伤害'\n",
    "SetBonus": "",
    "ModifyTooltips": []
  },
  {
    "TypeName": "GoldKnife",
    "Namespace": "AFKPETS.Items.Weapons",
    "Name": "注金飞刀",
    "Tooltip": "击中敌人使它掉落更多钱币",
    "SetBonus": "",
    "ModifyTooltips": []
  },
  {
    "TypeName": "GonerAnnoyingDog",
    "Namespace": "AFKPETS.Items.Weapons",
    "Name": "讨人厌的神烦狗",
    "Tooltip": "它变成了一个汪汪叫着想要讨好朋友的狗。",
    "SetBonus": "",
    "ModifyTooltips": []
  },
  {
    "TypeName": "GonerSeastar",
    "Namespace": "AFKPETS.Items.Weapons",
    "Name": "失魂星鱼",
    "Tooltip": "'它是由在破碎的时空中被碾碎的某人的一部分再生而成的'\n'但也许时间的流动会让事情变得明朗起来。'",
    "SetBonus": "",
    "ModifyTooltips": []
  },
  {
    "TypeName": "GunReaper",
    "Namespace": "AFKPETS.Items.Weapons",
    "Name": "枪之收割者",
    "Tooltip": "“我不知道信徒喜欢枪”",
    "SetBonus": "",
    "ModifyTooltips": []
  },
  {
    "TypeName": "HallowedShuriken",
    "Namespace": "AFKPETS.Items.Weapons",
    "Name": "镀阳手里剑",
    "ToolTip": "'它就像祝福之心内的正义一样尖锐。'",
    "SetBonus": "",
    "ModifyTooltips": []
  },
  {
    "TypeName": "HallowedStarWand",
    "Namespace": "AFKPETS.Items.Weapons",
    "Name": "圣星长杖",
    "ToolTip": "'它从祝福之星处汲取力量。'",
    "SetBonus": "",
    "ModifyTooltips": []
  },
  {
    "TypeName": "HappyBomb",
    "Namespace": "AFKPETS.Items.Weapons",
    "Name": "快乐炸弹",
    "Tooltip": "“复仇时间”",
    "SetBonus": "",
    "ModifyTooltips": []
  },
  {
    "TypeName": "HauntedTome",
    "Namespace": "AFKPETS.Items.Weapons",
    "Name": "鬼魂之书",
    "Tooltip": "'从Boo大厦的图书馆里借来的'",
    "SetBonus": "",
    "ModifyTooltips": []
  },
  {
    "TypeName": "Hellnerade",
    "Namespace": "AFKPETS.Items.Weapons",
    "Name": "地狱蜜蜂雷",
    "Tooltip": "'爆出一团会自爆的蜜蜂'",
    "SetBonus": "",
    "ModifyTooltips": []
  },
  {
    "TypeName": "Hitarang",
    "Namespace": "AFKPETS.Items.Weapons",
    "Name": "击敌反馈",
    "Tooltip": "'让每个人都大吃一惊'",
    "SetBonus": "",
    "ModifyTooltips": []
  },
  {
    "TypeName": "Hive",
    "Namespace": "AFKPETS.Items.Weapons",
    "Name": "蜂窝",
    "Tooltip": "'用它把敌人扎成蜂窝'",
    "SetBonus": "",
    "ModifyTooltips": []
  },
  {
    "TypeName": "HolidayThrower",
    "Namespace": "AFKPETS.Items.Weapons",
    "Name": "假期投掷者",
    "Tooltip": "",
    "SetBonus": "",
    "ModifyTooltips": []
  },
  {
    "TypeName": "HolographicArkhalis",
    "Namespace": "AFKPETS.Items.Weapons",
    "Name": "全息圣剑",
    "ToolTip": "'只是拿着它就让你充满希望'",
    "SetBonus": "",
    "ModifyTooltips": []
  },
  {
    "TypeName": "HolographicFightingGlove",
    "Namespace": "AFKPETS.Items.Weapons",
    "Name": "Holographic Fighting Glove",
    "ToolTip": "'For oraoraora needs'",
    "SetBonus": "",
    "ModifyTooltips": []
  },
  {
    "TypeName": "HolographicYoyo",
    "Namespace": "AFKPETS.Items.Weapons",
    "Name": "Holohraphic Yoyo",
    "ToolTip": "You feel it's formed from part of holographic slime",
    "SetBonus": "",
    "ModifyTooltips": []
  },
  {
    "TypeName": "HoneyCrystal",
    "Namespace": "AFKPETS.Items.Weapons",
    "Name": "蜂蜜结晶",
    "Tooltip": "'放出一道蜂蜜箭，并且会在击中敌人后产出一只追踪敌人的小蜜蜂'",
    "SetBonus": "",
    "ModifyTooltips": []
  },
  {
    "TypeName": "HoneyCrystalStaff",
    "Namespace": "AFKPETS.Items.Weapons",
    "Name": "结晶蜂蜜杖",
    "Tooltip": "'两个守护者的力量合二为一'",
    "SetBonus": "",
    "ModifyTooltips": []
  },
  {
    "TypeName": "HTAxe",
    "Namespace": "AFKPETS.Items.Weapons",
    "Name": "HT Sans的斧头",
    "Tooltip": "“它闻起来像血。我希望他不知道我拿走了它。”",
    "SetBonus": "",
    "ModifyTooltips": []
  },
  {
    "TypeName": "HydroJolter",
    "Namespace": "AFKPETS.Items.Weapons",
    "Name": "Hydro Jolter",
    "ToolTip": "It will convert arrows into bolts",
    "SetBonus": "",
    "ModifyTooltips": []
  },
  {
    "TypeName": "IceMagic",
    "Namespace": "AFKPETS.Items.Weapons",
    "Name": "冰冻回旋镖书",
    "Tooltip": "“谨慎使用。”",
    "SetBonus": "",
    "ModifyTooltips": []
  },
  {
    "TypeName": "IchorBolt",
    "Namespace": "AFKPETS.Items.Weapons",
    "Name": "脓血弹",
    "Tooltip": "",
    "SetBonus": "",
    "ModifyTooltips": []
  },
  {
    "TypeName": "KnifePack1",
    "Namespace": "AFKPETS.Items.Weapons",
    "Name": "飞刀包I",
    "Tooltip": "发射飞刀",
    "SetBonus": "",
    "ModifyTooltips": []
  },
  {
    "TypeName": "KnifePack2",
    "Namespace": "AFKPETS.Items.Weapons",
    "Name": "飞刀包II",
    "Tooltip": "发射强力飞刀",
    "SetBonus": "",
    "ModifyTooltips": []
  },
  {
    "TypeName": "LizardKnife",
    "Namespace": "AFKPETS.Items.Weapons",
    "Name": "古老的刀",
    "Tooltip": "“甚至被发明者遗忘的武器。”",
    "SetBonus": "",
    "ModifyTooltips": []
  },
  {
    "TypeName": "LizhardBow",
    "Namespace": "AFKPETS.Items.Weapons",
    "Name": "蜥蜴弓",
    "Tooltip": "将箭转化为射线",
    "SetBonus": "",
    "ModifyTooltips": []
  },
  {
    "TypeName": "Lunargun",
    "Namespace": "AFKPETS.Items.Weapons",
    "Name": "月枪",
    "Tooltip": "将子弹变成幽灵弹\n“有几率发射一波幽灵弹”",
    "SetBonus": "",
    "ModifyTooltips": []
  },
  {
    "TypeName": "MagicBouncyGlowStick",
    "Namespace": "AFKPETS.Items.Weapons",
    "Name": "魔法弹性荧光棒",
    "ToolTip": "",
    "SetBonus": "",
    "ModifyTooltips": []
  },
  {
    "TypeName": "MagicGlowStick",
    "Namespace": "AFKPETS.Items.Weapons",
    "Name": "魔法荧光棒",
    "ToolTip": "",
    "SetBonus": "",
    "ModifyTooltips": []
  },
  {
    "TypeName": "MagicOfBoulders",
    "Namespace": "AFKPETS.Items.Weapons",
    "Name": "巨石魔法",
    "Tooltip": "“现在武器找到了它的真正潜力”",
    "SetBonus": "",
    "ModifyTooltips": []
  },
  {
    "TypeName": "MagicSpelunkerGlowStick",
    "Namespace": "AFKPETS.Items.Weapons",
    "Name": "魔法洞穴探险荧光棒",
    "ToolTip": "",
    "SetBonus": "",
    "ModifyTooltips": []
  },
  {
    "TypeName": "MagicStickyGlowStick",
    "Namespace": "AFKPETS.Items.Weapons",
    "Name": "魔法粘性荧光棒",
    "ToolTip": "",
    "SetBonus": "",
    "ModifyTooltips": []
  },
  {
    "TypeName": "MasterShuriken",
    "Namespace": "AFKPETS.Items.Weapons",
    "Name": "大师手里剑",
    "ToolTip": "'他曾被传说中的大猿忍使用过'",
    "SetBonus": "",
    "ModifyTooltips": []
  },
  {
    "TypeName": "MechanicalKnife",
    "Namespace": "AFKPETS.Items.Weapons",
    "Name": "机械刀",
    "Tooltip": "“只是一把有着人工智能的刀。”",
    "SetBonus": "",
    "ModifyTooltips": []
  },
  {
    "TypeName": "MechanicArm",
    "Namespace": "AFKPETS.Items.Weapons",
    "Name": "Daisy的爆破者",
    "Tooltip": "为了消灭坏人而设计出的",
    "SetBonus": "",
    "ModifyTooltips": []
  },
  {
    "TypeName": "MeteorSword",
    "Namespace": "AFKPETS.Items.Weapons",
    "Name": "流星剑",
    "Tooltip": "",
    "SetBonus": "",
    "ModifyTooltips": []
  },
  {
    "TypeName": "MiniHakkero",
    "Namespace": "AFKPETS.Items.Weapons",
    "Name": "迷你八卦炉",
    "Tooltip": "集中精力，准备射击；在释放之前轻轻呢喃——迷你八卦炉.\n然后对着你讨厌的人，狠狠地来上一发邪恋！",
    "SetBonus": "",
    "ModifyTooltips": []
  },
  {
    "TypeName": "MisaoKnife",
    "Namespace": "AFKPETS.Items.Weapons",
    "Name": "老师的刀",
    "ToolTip": "'这上面还有无辜者的鲜血'\n'攻击敌人后有几率回想起一些东西并见到???.'",
    "SetBonus": "",
    "ModifyTooltips": []
  },
  {
    "TypeName": "Moneyshot",
    "Namespace": "AFKPETS.Items.Weapons",
    "Name": "撒币弓",
    "ToolTip": "把木箭转换为硬币堆\n身上每有十个硬币就能增加它的伤害",
    "SetBonus": "",
    "ModifyTooltips": []
  },
  {
    "TypeName": "MonkeyPaw",
    "Namespace": "AFKPETS.Items.Weapons",
    "Name": "猴爪",
    "ToolTip": "'It looks like it's remains of one of it's prey.'\n'Even holding it makes you feel you need to pop baloons.'\n'Not moving increase your damage and defense slightly'",
    "SetBonus": "",
    "ModifyTooltips": []
  },
  {
    "TypeName": "MountainDew",
    "Namespace": "AFKPETS.Items.Weapons",
    "Name": "激浪",
    "Tooltip": "它有特殊潜能\n它曾经是给古老军阀准备的",
    "SetBonus": "",
    "ModifyTooltips": []
  },
  {
    "TypeName": "Musketron",
    "Namespace": "AFKPETS.Items.Weapons",
    "Name": "子弹公爵",
    "Tooltip": "右键发射水弹\n左键发射五发子弹\n“它在水里也能帮到你”",
    "SetBonus": "",
    "ModifyTooltips": []
  },
  {
    "TypeName": "NanoKnife",
    "Namespace": "AFKPETS.Items.Weapons",
    "Name": "纳米飞刀",
    "Tooltip": "“这个名字是基于纳米机器人还是它的大小？”",
    "SetBonus": "",
    "ModifyTooltips": []
  },
  {
    "TypeName": "NaturePartySword",
    "Namespace": "AFKPETS.Items.Weapons",
    "Name": "自然之颂歌",
    "Tooltip": "'集树精和派对女孩的两者所长'\n'右键发射快乐手榴弹,左键发射树精之叶'",
    "SetBonus": "",
    "ModifyTooltips": []
  },
  {
    "TypeName": "NekoSlimesWagasa",
    "Namespace": "AFKPETS.Items.Weapons",
    "Name": "Neko Slime's Wagasa",
    "ToolTip": "A perfect umbrella for walking when tsuyu starts\nYou feel sad when you hear she wait to use this for walking with her sensei while sakura leaves are falling",
    "SetBonus": "",
    "ModifyTooltips": []
  },
  {
    "TypeName": "PumpkinSickle",
    "Namespace": "AFKPETS.Items.Weapons",
    "Name": "南瓜镰刀",
    "Tooltip": "“南瓜王的特殊武器”",
    "SetBonus": "",
    "ModifyTooltips": []
  },
  {
    "TypeName": "PumpkinSword",
    "Namespace": "AFKPETS.Items.Weapons",
    "Name": "南瓜刀",
    "Tooltip": "“它看起来小巧古怪”\n“这是怎么铸造的？”",
    "SetBonus": "",
    "ModifyTooltips": []
  },
  {
    "TypeName": "PumpkinSword2",
    "Namespace": "AFKPETS.Items.Weapons",
    "Name": "Pumpkin Sword",
    "ToolTip": "'Strangely it's sharp enough to cut titanium'\n'Also you feel it's magical power is getting stronger'",
    "SetBonus": "",
    "ModifyTooltips": []
  },
  {
    "TypeName": "QueensSlice",
    "Namespace": "AFKPETS.Items.Weapons",
    "Name": "冰皇后切片",
    "Tooltip": "“名字说明了一切”",
    "SetBonus": "",
    "ModifyTooltips": []
  },
  {
    "TypeName": "QueensStingShooter",
    "Namespace": "AFKPETS.Items.Weapons",
    "Name": "皇后混乱破坏者",
    "Tooltip": "政权被此保护",
    "SetBonus": "",
    "ModifyTooltips": []
  },
  {
    "TypeName": "RainbowBow",
    "Namespace": "AFKPETS.Items.Weapons",
    "Name": "彩虹弓",
    "Tooltip": "将普通箭支替换成其它种类",
    "SetBonus": "",
    "ModifyTooltips": []
  },
  {
    "TypeName": "RainbowCrystalStaff",
    "Namespace": "AFKPETS.Items.Weapons",
    "Name": "彩虹法杖",
    "Tooltip": "'所有守护者的力量以一种不稳定的状态回归了。'\n'太过OP所以别欺负别人.'\n",
    "SetBonus": "",
    "ModifyTooltips": []
  },
  {
    "TypeName": "RecoddedProbe",
    "Namespace": "AFKPETS.Items.Weapons",
    "Name": "重编码探测器",
    "Tooltip": "它以为你是一个机械boss",
    "SetBonus": "",
    "ModifyTooltips": []
  },
  {
    "TypeName": "Redemption",
    "Namespace": "AFKPETS.Items.Weapons",
    "Name": "Redemption",
    "ToolTip": "An artifact which have been designed in another universe\nNo matter how bad you are at something, there's always something you're good at",
    "SetBonus": "",
    "ModifyTooltips": []
  },
  {
    "TypeName": "RippedMinigun",
    "Namespace": "AFKPETS.Items.Weapons",
    "Name": "古董加特林",
    "Tooltip": "仍然可用",
    "SetBonus": "",
    "ModifyTooltips": []
  },
  {
    "TypeName": "RippedRocketLauncher",
    "Namespace": "AFKPETS.Items.Weapons",
    "Name": "古董火箭发射器",
    "Tooltip": "仍然可用",
    "SetBonus": "",
    "ModifyTooltips": []
  },
  {
    "TypeName": "RustyKatana",
    "Namespace": "AFKPETS.Items.Weapons",
    "Name": "生锈的武士刀",
    "Tooltip": "看起来损坏并且老旧\n但是古老并且神秘",
    "SetBonus": "",
    "ModifyTooltips": []
  },
  {
    "TypeName": "SeriousCannon",
    "Namespace": "AFKPETS.Items.Weapons",
    "Name": "严肃的大炮",
    "Tooltip": "Seriously MENTAL",
    "SetBonus": "",
    "ModifyTooltips": []
  },
  {
    "TypeName": "ShadowIchorKnife",
    "Namespace": "AFKPETS.Items.Weapons",
    "Name": "暗影脓血飞刀",
    "Tooltip": "击中敌人附加脓血效果",
    "SetBonus": "",
    "ModifyTooltips": []
  },
  {
    "TypeName": "ShinobiKatana",
    "Namespace": "AFKPETS.Items.Weapons",
    "Name": "忍者史莱姆太刀",
    "ToolTip": "'它曾被用来保护它的君主'\n'如果你的敌人血量已不足10%，你就可以造成致命一击'\n'当然你并不能对BOSS致命一击'",
    "SetBonus": "",
    "ModifyTooltips": []
  },
  {
    "TypeName": "ShortCircuit",
    "Namespace": "AFKPETS.Items.Weapons",
    "Name": "Short Circuit",
    "ToolTip": "'You are not sure if it's caused by circuit design or solder but still it works well'",
    "SetBonus": "",
    "ModifyTooltips": []
  },
  {
    "TypeName": "SkullCrasher",
    "Namespace": "AFKPETS.Items.Weapons",
    "Name": "Skull Crasher",
    "ToolTip": "A heavy yoyo once designed for hunting titans",
    "SetBonus": "",
    "ModifyTooltips": []
  },
  {
    "TypeName": "SkullGun",
    "Namespace": "AFKPETS.Items.Weapons",
    "Name": "头骨枪",
    "Tooltip": "有几率发射头骨",
    "SetBonus": "",
    "ModifyTooltips": []
  },
  {
    "TypeName": "SliceofIceKing",
    "Namespace": "AFKPETS.Items.Weapons",
    "Name": "Slice of Ice King",
    "ToolTip": "'Now it find it's true potential for kidnapping princesses'\n'Also strangely holding it makes you slowly lose your memories'",
    "SetBonus": "",
    "ModifyTooltips": []
  },
  {
    "TypeName": "SlimeBall",
    "Namespace": "AFKPETS.Items.Weapons",
    "Name": "史莱姆球",
    "Tooltip": "“黏滑又危险”",
    "SetBonus": "",
    "ModifyTooltips": []
  },
  {
    "TypeName": "Snowballer",
    "Namespace": "AFKPETS.Items.Weapons",
    "Name": "雪球枪",
    "Tooltip": "可能含有石头",
    "SetBonus": "",
    "ModifyTooltips": []
  },
  {
    "TypeName": "SoulPointer",
    "Namespace": "AFKPETS.Items.Weapons",
    "Name": "Spiritual Fan",
    "ToolTip": "'It's once forged with fallen souls and divine metal'\n'When it's winded the soul of the enemy it's wind touch may lose piece of it's soul'",
    "SetBonus": "",
    "ModifyTooltips": []
  },
  {
    "TypeName": "Spaztinazer",
    "Namespace": "AFKPETS.Items.Weapons",
    "Name": "Spaztinazer",
    "Tooltip": "使用双子眼的力量所打造",
    "SetBonus": "",
    "ModifyTooltips": []
  },
  {
    "TypeName": "SpectralKnife",
    "Namespace": "AFKPETS.Items.Weapons",
    "Name": "幽灵飞刀",
    "Tooltip": "“看着诡异。”",
    "SetBonus": "",
    "ModifyTooltips": []
  },
  {
    "TypeName": "SpikeBallLauncher",
    "Namespace": "AFKPETS.Items.Weapons",
    "Name": "钉刺球发射器",
    "Tooltip": "Santa-NK1的强力武器",
    "SetBonus": "",
    "ModifyTooltips": []
  },
  {
    "TypeName": "StrangeKnife",
    "Namespace": "AFKPETS.Items.Weapons",
    "Name": "怪异的飞刀",
    "Tooltip": "击中敌人使你传送",
    "SetBonus": "",
    "ModifyTooltips": []
  },
  {
    "TypeName": "SummerSaleMinigun",
    "Namespace": "AFKPETS.Items.Weapons",
    "Name": "钱包抽钞机",
    "Tooltip": "人类与夏促的力量组合",
    "SetBonus": "",
    "ModifyTooltips": []
  },
  {
    "TypeName": "SunSlicer",
    "Namespace": "AFKPETS.Items.Weapons",
    "Name": "Sun Slicer",
    "ToolTip": "It's core still continue to fusing hydrogene",
    "SetBonus": "",
    "ModifyTooltips": []
  },
  {
    "TypeName": "SuperBall",
    "Namespace": "AFKPETS.Items.Weapons",
    "Name": "超级球",
    "ToolTip": "'瞬间爆炸'",
    "SetBonus": "",
    "ModifyTooltips": []
  },
  {
    "TypeName": "SuperballFlower",
    "Namespace": "AFKPETS.Items.Weapons",
    "Name": "Superball Flower",
    "ToolTip": "'It was once used by a plumper'",
    "SetBonus": "",
    "ModifyTooltips": []
  },
  {
    "TypeName": "TeslaCoilGun",
    "Namespace": "AFKPETS.Items.Weapons",
    "Name": "特斯拉枪",
    "ToolTip": "将闪电射向你的敌人",
    "SetBonus": "",
    "ModifyTooltips": []
  },
  {
    "TypeName": "TheGrandCelebration",
    "Namespace": "AFKPETS.Items.Weapons",
    "Name": "盛大的庆典",
    "ToolTip": "军阀纪念日特别庆典\n[c/ffff00:趣味模式专属道具]",
    "SetBonus": "",
    "ModifyTooltips": []
  },
  {
    "TypeName": "TheRealKnife",
    "Namespace": "AFKPETS.Items.Weapons",
    "Name": "真刀",
    "Tooltip": "“我们到了！时间。”",
    "SetBonus": "",
    "ModifyTooltips": []
  },
  {
    "TypeName": "ThirdArm",
    "Namespace": "AFKPETS.Items.Weapons",
    "Name": "第三足",
    "Tooltip": "曾属于一只八咫乌\n左键正常攻击，右键放出核爆",
    "SetBonus": "",
    "ModifyTooltips": []
  },
  {
    "TypeName": "喷溅型Lightning",
    "Namespace": "AFKPETS.Items.Weapons",
    "Name": "小闪电",
    "ToolTip": "'虽然它看起来很小，但蕴藏在其中的浓缩雷电之力不可小觑'",
    "SetBonus": "",
    "ModifyTooltips": []
  },
  {
    "TypeName": "ThrownAmmoReservation",
    "Namespace": "AFKPETS.Items.Weapons",
    "Name": "喷溅型弹药储备药水",
    "Tooltip": "'站在它喷洒出的烟雾中即可获得药水的效果'",
    "SetBonus": "",
    "ModifyTooltips": []
  },
  {
    "TypeName": "ThrownArchery",
    "Namespace": "AFKPETS.Items.Weapons",
    "Name": "喷溅型箭术药水",
    "Tooltip": "'站在它喷洒出的烟雾中即可获得药水的效果'",
    "SetBonus": "",
    "ModifyTooltips": []
  },
  {
    "TypeName": "ThrownBattle",
    "Namespace": "AFKPETS.Items.Weapons",
    "Name": "喷溅型战争药水",
    "Tooltip": "'站在它喷洒出的烟雾中即可获得药水的效果'",
    "SetBonus": "",
    "ModifyTooltips": []
  },
  {
    "TypeName": "ThrownBuilder",
    "Namespace": "AFKPETS.Items.Weapons",
    "Name": "喷溅型建筑药水",
    "Tooltip": "'站在它喷洒出的烟雾中即可获得药水的效果'",
    "SetBonus": "",
    "ModifyTooltips": []
  },
  {
    "TypeName": "ThrownCalming",
    "Namespace": "AFKPETS.Items.Weapons",
    "Name": "喷溅型镇静药水",
    "Tooltip": "'站在它喷洒出的烟雾中即可获得药水的效果'",
    "SetBonus": "",
    "ModifyTooltips": []
  },
  {
    "TypeName": "ThrownCrate",
    "Namespace": "AFKPETS.Items.Weapons",
    "Name": "喷溅型板条箱药水",
    "Tooltip": "'站在它喷洒出的烟雾中即可获得药水的效果'",
    "SetBonus": "",
    "ModifyTooltips": []
  },
  {
    "TypeName": "ThrownDangersense",
    "Namespace": "AFKPETS.Items.Weapons",
    "Name": "喷溅型危险感知药水",
    "Tooltip": "'站在它喷洒出的烟雾中即可获得药水的效果'",
    "SetBonus": "",
    "ModifyTooltips": []
  },
  {
    "TypeName": "ThrownEndurance",
    "Namespace": "AFKPETS.Items.Weapons",
    "Name": "喷溅型耐力药水",
    "Tooltip": "'站在它喷洒出的烟雾中即可获得药水的效果'",
    "SetBonus": "",
    "ModifyTooltips": []
  },
  {
    "TypeName": "ThrownFeatherfall",
    "Namespace": "AFKPETS.Items.Weapons",
    "Name": "喷溅型羽落药水",
    "Tooltip": "'站在它喷洒出的烟雾中即可获得药水的效果'",
    "SetBonus": "",
    "ModifyTooltips": []
  },
  {
    "TypeName": "ThrownFishing",
    "Namespace": "AFKPETS.Items.Weapons",
    "Name": "喷溅型钓鱼药水",
    "Tooltip": "'站在它喷洒出的烟雾中即可获得药水的效果'",
    "SetBonus": "",
    "ModifyTooltips": []
  },
  {
    "TypeName": "ThrownFlipper",
    "Namespace": "AFKPETS.Items.Weapons",
    "Name": "喷溅型游泳药水",
    "Tooltip": "'站在它喷洒出的烟雾中即可获得药水的效果'",
    "SetBonus": "",
    "ModifyTooltips": []
  },
  {
    "TypeName": "ThrownFruit",
    "Namespace": "AFKPETS.Items.Weapons",
    "Name": "喷溅型生命之果药水",
    "Tooltip": "'站在它喷洒出的烟雾中即可获得药水的效果'",
    "SetBonus": "",
    "ModifyTooltips": []
  },
  {
    "TypeName": "ThrownGenderChangePotion",
    "Namespace": "AFKPETS.Items.Weapons",
    "Name": "喷溅型性转药水",
    "ToolTip": "'站在它喷洒出的烟雾中即可获得药水的效果'",
    "SetBonus": "",
    "ModifyTooltips": []
  },
  {
    "TypeName": "ThrownGills",
    "Namespace": "AFKPETS.Items.Weapons",
    "Name": "喷溅型水下呼吸药水",
    "Tooltip": "'站在它喷洒出的烟雾中即可获得药水的效果'",
    "SetBonus": "",
    "ModifyTooltips": []
  },
  {
    "TypeName": "ThrownGravitation",
    "Namespace": "AFKPETS.Items.Weapons",
    "Name": "喷溅型重力药水",
    "Tooltip": "'站在它喷洒出的烟雾中即可获得药水的效果'",
    "SetBonus": "",
    "ModifyTooltips": []
  },
  {
    "TypeName": "ThrownHeartreach",
    "Namespace": "AFKPETS.Items.Weapons",
    "Name": "喷溅型拾心药水",
    "Tooltip": "'站在它喷洒出的烟雾中即可获得药水的效果'",
    "SetBonus": "",
    "ModifyTooltips": []
  },
  {
    "TypeName": "ThrownHunter",
    "Namespace": "AFKPETS.Items.Weapons",
    "Name": "喷溅型狩猎药水",
    "Tooltip": "'站在它喷洒出的烟雾中即可获得药水的效果'",
    "SetBonus": "",
    "ModifyTooltips": []
  },
  {
    "TypeName": "ThrownInferno",
    "Namespace": "AFKPETS.Items.Weapons",
    "Name": "喷溅型狱火药水",
    "Tooltip": "'站在它喷洒出的烟雾中即可获得药水的效果'",
    "SetBonus": "",
    "ModifyTooltips": []
  },
  {
    "TypeName": "ThrownInvisibility",
    "Namespace": "AFKPETS.Items.Weapons",
    "Name": "喷溅型隐身药水",
    "Tooltip": "'站在它喷洒出的烟雾中即可获得药水的效果'",
    "SetBonus": "",
    "ModifyTooltips": []
  },
  {
    "TypeName": "ThrownIronskin",
    "Namespace": "AFKPETS.Items.Weapons",
    "Name": "喷溅型铁皮药水",
    "Tooltip": "'站在它喷洒出的烟雾中即可获得药水的效果'",
    "SetBonus": "",
    "ModifyTooltips": []
  },
  {
    "TypeName": "ThrownLifeforce",
    "Namespace": "AFKPETS.Items.Weapons",
    "Name": "喷溅型生命力药水",
    "Tooltip": "'站在它喷洒出的烟雾中即可获得药水的效果'",
    "SetBonus": "",
    "ModifyTooltips": []
  },
  {
    "TypeName": "ThrownLizhard",
    "Namespace": "AFKPETS.Items.Weapons",
    "Name": "喷溅型蜥蜴皮药水",
    "Tooltip": "'站在它喷洒出的烟雾中即可获得药水的效果'",
    "SetBonus": "",
    "ModifyTooltips": []
  },
  {
    "TypeName": "ThrownMagicPower",
    "Namespace": "AFKPETS.Items.Weapons",
    "Name": "喷溅型魔力药水",
    "Tooltip": "'站在它喷洒出的烟雾中即可获得药水的效果'",
    "SetBonus": "",
    "ModifyTooltips": []
  },
  {
    "TypeName": "ThrownManaRegeneration",
    "Namespace": "AFKPETS.Items.Weapons",
    "Name": "喷溅型法力再生药水",
    "Tooltip": "'站在它喷洒出的烟雾中即可获得药水的效果'",
    "SetBonus": "",
    "ModifyTooltips": []
  },
  {
    "TypeName": "ThrownMining",
    "Namespace": "AFKPETS.Items.Weapons",
    "Name": "喷溅型采矿药水",
    "Tooltip": "'站在它喷洒出的烟雾中即可获得药水的效果'",
    "SetBonus": "",
    "ModifyTooltips": []
  },
  {
    "TypeName": "ThrownNightOwl",
    "Namespace": "AFKPETS.Items.Weapons",
    "Name": "喷溅型夜视药水",
    "Tooltip": "'站在它喷洒出的烟雾中即可获得药水的效果'",
    "SetBonus": "",
    "ModifyTooltips": []
  },
  {
    "TypeName": "ThrownObsidianSkin",
    "Namespace": "AFKPETS.Items.Weapons",
    "Name": "喷溅型黑曜石皮肤药水",
    "Tooltip": "'站在它喷洒出的烟雾中即可获得药水的效果'",
    "SetBonus": "",
    "ModifyTooltips": []
  },
  {
    "TypeName": "ThrownRage",
    "Namespace": "AFKPETS.Items.Weapons",
    "Name": "喷溅型怒气药水",
    "Tooltip": "'站在它喷洒出的烟雾中即可获得药水的效果'",
    "SetBonus": "",
    "ModifyTooltips": []
  },
  {
    "TypeName": "ThrownRegeneration",
    "Namespace": "AFKPETS.Items.Weapons",
    "Name": "喷溅型再生药水",
    "Tooltip": "'站在它喷洒出的烟雾中即可获得药水的效果'",
    "SetBonus": "",
    "ModifyTooltips": []
  },
  {
    "TypeName": "ThrownShine",
    "Namespace": "AFKPETS.Items.Weapons",
    "Name": "喷溅型闪耀药水",
    "Tooltip": "'站在它喷洒出的烟雾中即可获得药水的效果'",
    "SetBonus": "",
    "ModifyTooltips": []
  },
  {
    "TypeName": "ThrownSonar",
    "Namespace": "AFKPETS.Items.Weapons",
    "Name": "喷溅型声呐药水",
    "Tooltip": "'站在它喷洒出的烟雾中即可获得药水的效果'",
    "SetBonus": "",
    "ModifyTooltips": []
  },
  {
    "TypeName": "ThrownSpelunker",
    "Namespace": "AFKPETS.Items.Weapons",
    "Name": "喷溅型勘探药水",
    "Tooltip": "'站在它喷洒出的烟雾中即可获得药水的效果'",
    "SetBonus": "",
    "ModifyTooltips": []
  },
  {
    "TypeName": "ThrownSpore",
    "Namespace": "AFKPETS.Items.Weapons",
    "Name": "喷溅型孢子药水",
    "Tooltip": "'站在它喷洒出的烟雾中即可获得药水的效果'",
    "SetBonus": "",
    "ModifyTooltips": []
  },
  {
    "TypeName": "ThrownStar",
    "Namespace": "AFKPETS.Items.Weapons",
    "Name": "喷溅型星落药水",
    "Tooltip": "'站在它喷洒出的烟雾中即可获得药水的效果'",
    "SetBonus": "",
    "ModifyTooltips": []
  },
  {
    "TypeName": "ThrownSummoning",
    "Namespace": "AFKPETS.Items.Weapons",
    "Name": "喷溅型召唤药水",
    "Tooltip": "'站在它喷洒出的烟雾中即可获得药水的效果'",
    "SetBonus": "",
    "ModifyTooltips": []
  },
  {
    "TypeName": "ThrownSwiftness",
    "Namespace": "AFKPETS.Items.Weapons",
    "Name": "喷溅型敏捷药水",
    "Tooltip": "'站在它喷洒出的烟雾中即可获得药水的效果'",
    "SetBonus": "",
    "ModifyTooltips": []
  },
  {
    "TypeName": "ThrownTeleportation",
    "Namespace": "AFKPETS.Items.Weapons",
    "Name": "喷溅型随机传送药水",
    "Tooltip": "'站在它喷洒出的烟雾中即可获得药水的效果'",
    "SetBonus": "",
    "ModifyTooltips": []
  },
  {
    "TypeName": "ThrownThorns",
    "Namespace": "AFKPETS.Items.Weapons",
    "Name": "喷溅型荆棘药水",
    "Tooltip": "'站在它喷洒出的烟雾中即可获得药水的效果'",
    "SetBonus": "",
    "ModifyTooltips": []
  },
  {
    "TypeName": "ThrownTitan",
    "Namespace": "AFKPETS.Items.Weapons",
    "Name": "喷溅型泰坦药水",
    "Tooltip": "'站在它喷洒出的烟雾中即可获得药水的效果'",
    "SetBonus": "",
    "ModifyTooltips": []
  },
  {
    "TypeName": "ThrownWarmth",
    "Namespace": "AFKPETS.Items.Weapons",
    "Name": "喷溅型温暖药水",
    "Tooltip": "'站在它喷洒出的烟雾中即可获得药水的效果'",
    "SetBonus": "",
    "ModifyTooltips": []
  },
  {
    "TypeName": "ThrownWaterWalking",
    "Namespace": "AFKPETS.Items.Weapons",
    "Name": "喷溅型水行药水",
    "Tooltip": "'站在它喷洒出的烟雾中即可获得药水的效果'",
    "SetBonus": "",
    "ModifyTooltips": []
  },
  {
    "TypeName": "ThrownWrath",
    "Namespace": "AFKPETS.Items.Weapons",
    "Name": "喷溅型愤怒药水",
    "Tooltip": "'站在它喷洒出的烟雾中即可获得药水的效果'",
    "SetBonus": "",
    "ModifyTooltips": []
  },
  {
    "TypeName": "Tizona",
    "Namespace": "AFKPETS.Items.Weapons",
    "Name": "提泽纳",
    "ToolTip": "可使敌人大量失血\n任何机械BOSS被击败后可用.",
    "SetBonus": "",
    "ModifyTooltips": []
  },
  {
    "TypeName": "TletlTlankoch",
    "Namespace": "AFKPETS.Items.Weapons",
    "Name": "",
    "ToolTip": "It's tip part once ripped from a hell beast\n",
    "SetBonus": "",
    "ModifyTooltips": []
  },
  {
    "TypeName": "TomeofEaster",
    "Namespace": "AFKPETS.Items.Weapons",
    "Name": "天兔之书",
    "ToolTip": "'它将以一股毛茸茸的强大力量为这个世界带来永恒的复活节。'\n在任何机械BOSS被击败后可用",
    "SetBonus": "",
    "ModifyTooltips": []
  },
  {
    "TypeName": "TomeofPresents",
    "Namespace": "AFKPETS.Items.Weapons",
    "Name": "礼物之书",
    "Tooltip": "“耶！”",
    "SetBonus": "",
    "ModifyTooltips": []
  },
  {
    "TypeName": "TomeOfStorms",
    "Namespace": "AFKPETS.Items.Weapons",
    "Name": "风暴之书",
    "Tooltip": "“琪露诺会很自豪。”\n我爱琪露诺不接受反驳",
    "SetBonus": "",
    "ModifyTooltips": []
  },
  {
    "TypeName": "TomeofUWU",
    "Namespace": "AFKPETS.Items.Weapons",
    "Name": "UWU之书",
    "ToolTip": "'它看起来很可爱，但仍然很危险'\n",
    "SetBonus": "",
    "ModifyTooltips": []
  },
  {
    "TypeName": "TonatiuTetl",
    "Namespace": "AFKPETS.Items.Weapons",
    "Name": "Tonatiu Tetl",
    "ToolTip": "It's sharp enough to break Tlahuiztli with ease",
    "SetBonus": "",
    "ModifyTooltips": []
  },
  {
    "TypeName": "Tonbogiri",
    "Namespace": "AFKPETS.Items.Weapons",
    "Name": "蜻蛉切",
    "ToolTip": "一把涂满了毒液的日本传说长矛\n在任何机械BOSS被击败后可用。",
    "SetBonus": "",
    "ModifyTooltips": []
  },
  {
    "TypeName": "TornadoTip",
    "Namespace": "AFKPETS.Items.Weapons",
    "Name": "Tornado Tip",
    "ToolTip": "'It was once used by the slayer of evil",
    "SetBonus": "",
    "ModifyTooltips": []
  },
  {
    "TypeName": "TrueExplosiveSword",
    "Namespace": "AFKPETS.Items.Weapons",
    "Name": "真·爆炸剑",
    "ToolTip": "现在它发现它真正的潜力了。\n当挥动它时，会使化学物质在空气中扩散并引起定向爆炸。",
    "SetBonus": "",
    "ModifyTooltips": []
  },
  {
    "TypeName": "UnfinishedGun",
    "Namespace": "AFKPETS.Items.Weapons",
    "Name": "未完成之枪",
    "Tooltip": "还是温的",
    "SetBonus": "",
    "ModifyTooltips": []
  },
  {
    "TypeName": "Vampiomere",
    "Namespace": "AFKPETS.Items.Weapons",
    "Name": "吸血鬼喵",
    "Tooltip": "发射吸血蝙蝠猫",
    "SetBonus": "",
    "ModifyTooltips": []
  },
  {
    "TypeName": "VenomKnife",
    "Namespace": "AFKPETS.Items.Weapons",
    "Name": "毒液飞刀",
    "Tooltip": "“看上去很危险。”",
    "SetBonus": "",
    "ModifyTooltips": []
  },
  {
    "TypeName": "VoidBowl",
    "Namespace": "AFKPETS.Items.Weapons",
    "Name": "碗中虚空",
    "Tooltip": "你感觉有什么东西在里面游动。",
    "SetBonus": "",
    "ModifyTooltips": []
  },
  {
    "TypeName": "VoidKatana",
    "Namespace": "AFKPETS.Items.Weapons",
    "Name": "虚无武士刀",
    "Tooltip": "使用反物质切开物体\n“左右键有不同攻击方式”",
    "SetBonus": "",
    "ModifyTooltips": []
  },
  {
    "TypeName": "VulcanRepeater",
    "Namespace": "AFKPETS.Items.Weapons",
    "Name": "火神连弩",
    "ToolTip": "将剑矢转化为火神箭。\n在任何机械BOSS被击败后可用。",
    "SetBonus": "",
    "ModifyTooltips": []
  },
  {
    "TypeName": "WatermelonIcicle",
    "Namespace": "AFKPETS.Items.Weapons",
    "Name": "西瓜冰锥",
    "Tooltip": "它是为了最强者铸造的",
    "SetBonus": "",
    "ModifyTooltips": []
  },
  {
    "TypeName": "WebBall",
    "Namespace": "AFKPETS.Items.Weapons",
    "Name": "织网球",
    "Tooltip": "",
    "SetBonus": "",
    "ModifyTooltips": []
  },
  {
    "TypeName": "Yangnade",
    "Namespace": "AFKPETS.Items.Weapons",
    "Name": "极阳蜜蜂手榴弹",
    "Tooltip": "'它可能会发现它和太阴手榴弹恰好达成平衡'",
    "SetBonus": "",
    "ModifyTooltips": []
  },
  {
    "TypeName": "YaoyotlCitialin",
    "Namespace": "AFKPETS.Items.Weapons",
    "Name": "Yaoyotl Citialin",
    "ToolTip": "'RC will summon a stationary star which will shoot stars while you are using the weapon'",
    "SetBonus": "",
    "ModifyTooltips": []
  },
  {
    "TypeName": "YellowSoul",
    "Namespace": "AFKPETS.Items.Weapons",
    "Name": "正义之魂",
    "Tooltip": "杀死守卫者让你充满了*正义*",
    "SetBonus": "",
    "ModifyTooltips": []
  },
  {
    "TypeName": "Yingnade",
    "Namespace": "AFKPETS.Items.Weapons",
    "Name": "太阴蜜蜂手榴弹",
    "Tooltip": "'它可能会发现它和极阳手榴弹恰好达成平衡'",
    "SetBonus": "",
    "ModifyTooltips": []
  }
]