[
  {
    "TypeName": "AquaPainting",
    "Namespace": "AFKPETS.Items.npc",
    "Name": "阿库娅海报",
    "ToolTip": "“游戏爱好者”",
    "SetBonus": "",
    "ModifyTooltips": []
  },
  {
    "TypeName": "OldPhotoAlbum",
    "Namespace": "AFKPETS.Items.npc",
    "Name": "Old Photo Album",
    "ToolTip": "'It's filled with photos of spirit of fun and its friend before cultists drive it insane'",
    "SetBonus": "",
    "ModifyTooltips": []
  },
  {
    "TypeName": "RareGem",
    "Namespace": "AFKPETS.Items.npc",
    "Name": "粉色钻石",
    "ToolTip": "'这颗钻石历经悠久岁月…'\n'它可能会吸引一些不请自来的且怀有恶意的淘金客'\n",
    "SetBonus": "",
    "ModifyTooltips": []
  }
]