[
  {
    "TypeName": "AquaPainting",
    "Namespace": "AFKPETS.Tiles",
    "Name": "Aqua Painting"
  },
  {
    "TypeName": "BloodyBox",
    "Namespace": "AFKPETS.Tiles",
    "Name": ""
  },
  {
    "TypeName": "Cat2Painting",
    "Namespace": "AFKPETS.Tiles",
    "Name": "猫猫"
  },
  {
    "TypeName": "CatPainting",
    "Namespace": "AFKPETS.Tiles",
    "Name": "流泪猫猫头"
  },
  {
    "TypeName": "ChaosAmplifier",
    "Namespace": "AFKPETS.Tiles",
    "Name": ""
  },
  {
    "TypeName": "Computer",
    "Namespace": "AFKPETS.Tiles",
    "Name": "宝可梦PC"
  },
  {
    "TypeName": "CookieBox",
    "Namespace": "AFKPETS.Tiles",
    "Name": ""
  },
  {
    "TypeName": "CoughingCatPainting",
    "Namespace": "AFKPETS.Tiles",
    "Name": "咳嗽猫画"
  },
  {
    "TypeName": "DappingGuideStatue",
    "Namespace": "AFKPETS.Tiles",
    "Name": "雕像"
  },
  {
    "TypeName": "DemonEffect",
    "Namespace": "AFKPETS.Tiles",
    "Name": "雕像"
  },
  {
    "TypeName": "DerpCatPainting",
    "Namespace": "AFKPETS.Tiles",
    "Name": "Derp Cat Painting"
  },
  {
    "TypeName": "DisgustCatPainting",
    "Namespace": "AFKPETS.Tiles",
    "Name": "Disgust Cat Painting"
  },
  {
    "TypeName": "DogPainting",
    "Namespace": "AFKPETS.Tiles",
    "Name": "Dog Painting"
  },
  {
    "TypeName": "DonationBox",
    "Namespace": "AFKPETS.Tiles",
    "Name": "捐款箱"
  },
  {
    "TypeName": "FallingSlimeStatue",
    "Namespace": "AFKPETS.Tiles",
    "Name": "Falling Slime Statue"
  },
  {
    "TypeName": "FirstYearBanner",
    "Namespace": "AFKPETS.Tiles",
    "Name": "AFK宠物模组一周年纪念旗帜"
  },
  {
    "TypeName": "FlowerEatingPainting",
    "Namespace": "AFKPETS.Tiles",
    "Name": "Flower Eating Painting"
  },
  {
    "TypeName": "FrozenCrystalStand",
    "Namespace": "AFKPETS.Tiles",
    "Name": ""
  },
  {
    "TypeName": "GlassVase",
    "Namespace": "AFKPETS.Tiles",
    "Name": ""
  },
  {
    "TypeName": "GreenPhone",
    "Namespace": "AFKPETS.Tiles",
    "Name": "Green Phone"
  },
  {
    "TypeName": "HappyCatPainting",
    "Namespace": "AFKPETS.Tiles",
    "Name": "《开心的猫》"
  },
  {
    "TypeName": "HappyCirnoPainting",
    "Namespace": "AFKPETS.Tiles",
    "Name": "Portrait of Happy Ice Fairy"
  },
  {
    "TypeName": "HolographicBlock",
    "Namespace": "AFKPETS.Tiles",
    "Name": ""
  },
  {
    "TypeName": "HolographicChair",
    "Namespace": "AFKPETS.Tiles",
    "Name": "全息椅子"
  },
  {
    "TypeName": "HolographicChest",
    "Namespace": "AFKPETS.Tiles",
    "Name": "全息箱"
  },
  {
    "TypeName": "HolographicDoorClosed",
    "Namespace": "AFKPETS.Tiles",
    "Name": "全息门"
  },
  {
    "TypeName": "HolographicDoorOpened",
    "Namespace": "AFKPETS.Tiles",
    "Name": "全息门"
  },
  {
    "TypeName": "HolographicPlatform",
    "Namespace": "AFKPETS.Tiles",
    "Name": ""
  },
  {
    "TypeName": "IbPainting",
    "Namespace": "AFKPETS.Tiles",
    "Name": "Pure Kindness"
  },
  {
    "TypeName": "KnifeEffect",
    "Namespace": "AFKPETS.Tiles",
    "Name": "雕像"
  },
  {
    "TypeName": "LancerPainting",
    "Namespace": "AFKPETS.Tiles",
    "Name": "枪骑兵画"
  },
  {
    "TypeName": "MonikaPainting",
    "Namespace": "AFKPETS.Tiles",
    "Name": "莫妮卡画"
  },
  {
    "TypeName": "MonikaPainting2",
    "Namespace": "AFKPETS.Tiles",
    "Name": "莫妮卡画"
  },
  {
    "TypeName": "MusicBoxPumpkin2",
    "Namespace": "AFKPETS.Tiles",
    "Name": ""
  },
  {
    "TypeName": "SayoriPainting",
    "Namespace": "AFKPETS.Tiles",
    "Name": "沙世里画"
  },
  {
    "TypeName": "Plant",
    "Namespace": "AFKPETS.Tiles",
    "Name": "雕像"
  },
  {
    "TypeName": "PlsRemberPainting",
    "Namespace": "AFKPETS.Tiles",
    "Name": "“请记住”画"
  },
  {
    "TypeName": "PortraitofMary",
    "Namespace": "AFKPETS.Tiles",
    "Name": "纯粹的快乐"
  },
  {
    "TypeName": "RouxlsKaardPainting",
    "Namespace": "AFKPETS.Tiles",
    "Name": "Portrait of a Shopkeeper"
  },
  {
    "TypeName": "SadCatPainting",
    "Namespace": "AFKPETS.Tiles",
    "Name": "流泪猫猫头"
  },
  {
    "TypeName": "SadCatPainting3",
    "Namespace": "AFKPETS.Tiles",
    "Name": "Sad Explanation Cat Painting"
  },
  {
    "TypeName": "SadFoxPainting",
    "Namespace": "AFKPETS.Tiles",
    "Name": "Sad Fox Painting"
  },
  {
    "TypeName": "NatsukiPainting",
    "Namespace": "AFKPETS.Tiles",
    "Name": "Natsuki Painting"
  },
  {
    "TypeName": "ScreamingSkeletonPainting",
    "Namespace": "AFKPETS.Tiles",
    "Name": "Screaming Skeleton Painting"
  },
  {
    "TypeName": "SenkoPainting1",
    "Namespace": "AFKPETS.Tiles",
    "Name": "Senko-san Painting"
  },
  {
    "TypeName": "SenkoPainting2",
    "Namespace": "AFKPETS.Tiles",
    "Name": "Senko-san Painting"
  },
  {
    "TypeName": "SenkoPainting3",
    "Namespace": "AFKPETS.Tiles",
    "Name": "Senko-san Painting"
  },
  {
    "TypeName": "SenkoPainting4",
    "Namespace": "AFKPETS.Tiles",
    "Name": "Senko-san Painting"
  },
  {
    "TypeName": "SkullStatue",
    "Namespace": "AFKPETS.Tiles",
    "Name": "雕像"
  },
  {
    "TypeName": "SnowPapyrus",
    "Namespace": "AFKPETS.Tiles",
    "Name": "雕像"
  },
  {
    "TypeName": "SpectralHolographicBlock",
    "Namespace": "AFKPETS.Tiles",
    "Name": ""
  },
  {
    "TypeName": "SpectralHolographicChair",
    "Namespace": "AFKPETS.Tiles",
    "Name": "光学全息椅子"
  },
  {
    "TypeName": "SpectralHolographicChest",
    "Namespace": "AFKPETS.Tiles",
    "Name": "光学全息箱"
  },
  {
    "TypeName": "SpectralHolographicDoorClosed",
    "Namespace": "AFKPETS.Tiles",
    "Name": "光学全息门"
  },
  {
    "TypeName": "SpectralHolographicDoorOpened",
    "Namespace": "AFKPETS.Tiles",
    "Name": "光学全息门"
  },
  {
    "TypeName": "SpectralHolographicPlatform",
    "Namespace": "AFKPETS.Tiles",
    "Name": ""
  },
  {
    "TypeName": "SpiritofFunPot",
    "Namespace": "AFKPETS.Tiles",
    "Name": ""
  },
  {
    "TypeName": "StrangeStatue",
    "Namespace": "AFKPETS.Tiles",
    "Name": "雕像"
  },
  {
    "TypeName": "StrawberryPimpPainting",
    "Namespace": "AFKPETS.Tiles",
    "Name": "Portrait of a Demon"
  },
  {
    "TypeName": "TemmieDoll",
    "Namespace": "AFKPETS.Tiles",
    "Name": "Temmie Doll"
  },
  {
    "TypeName": "TiredCirnoPainting",
    "Namespace": "AFKPETS.Tiles",
    "Name": "Portrait of Tired Ice Fairy"
  },
  {
    "TypeName": "TruffleWormStatue",
    "Namespace": "AFKPETS.Tiles",
    "Name": "雕像"
  },
  {
    "TypeName": "UmbrellaEffect",
    "Namespace": "AFKPETS.Tiles",
    "Name": "雕像"
  },
  {
    "TypeName": "WhiteHolographicBlock",
    "Namespace": "AFKPETS.Tiles",
    "Name": ""
  },
  {
    "TypeName": "WhiteHolographicChair",
    "Namespace": "AFKPETS.Tiles",
    "Name": "白色全息椅子"
  },
  {
    "TypeName": "WhiteHolographicChest",
    "Namespace": "AFKPETS.Tiles",
    "Name": "白色全息箱"
  },
  {
    "TypeName": "WhiteHolographicDoorClosed",
    "Namespace": "AFKPETS.Tiles",
    "Name": "白色全息门"
  },
  {
    "TypeName": "WhiteHolographicDoorOpened",
    "Namespace": "AFKPETS.Tiles",
    "Name": "白色全息门"
  },
  {
    "TypeName": "WhiteHolographicPlatform",
    "Namespace": "AFKPETS.Tiles",
    "Name": ""
  },
  {
    "TypeName": "WitchEffect",
    "Namespace": "AFKPETS.Tiles",
    "Name": "雕像"
  },
  {
    "TypeName": "YandereSpiderPainting",
    "Namespace": "AFKPETS.Tiles",
    "Name": "病娇蜘蛛画"
  },
  {
    "TypeName": "YukionnaEffect",
    "Namespace": "AFKPETS.Tiles",
    "Name": "雕像"
  },
  {
    "TypeName": "YuriPainting",
    "Namespace": "AFKPETS.Tiles",
    "Name": "Yuri Painting"
  }
]