[
  {
    "TypeName": "AFKPetsPlayer",
    "Namespace": "AFKPETS",
    "Method": "ModifyHitByNPC",
    "Contents": [
      "Your nightmare become reality"
    ]
  },
  {
    "TypeName": "AFKPetsPlayer",
    "Namespace": "AFKPETS",
    "Method": "PreKill",
    "Contents": [
      "... 但它拒绝了.",
      "... 但它拒绝了.",
      "波与粒的境界…牺牲了自己的灵魂来保护你.",
      "符卡宣告:结界 \"生与死的境界\"",
      "我从来没有也不会让他们伤害你.",
      "天哪天哪天哪!不会把玩家杀了但是玩家却杀了你!!!!!"
    ]
  },
  {
    "TypeName": "AFKPetsPlayer",
    "Namespace": "AFKPETS",
    "Method": "PostUpdateEquips",
    "Contents": [
      "The Sun shines bright with judgement"
    ]
  }
]